[{
    "labels": {
        "0": {
            "title": "Title",
            "name": "First Last",
            "agency": "Button A0 Agency",
            "extra": "Button A0 extra text",
            "layout": "layout1",
            "button": "a",
            "button_toggle": 0
        },
        "1": {
            "title": "Title",
            "name": "First Last",
            "agency": "Button A1 Agency",
            "extra": "Button A1 extra text",
            "layout": "layout1",
            "button": "a",
            "button_toggle": 1
        },
        "2": {
            "name": "First Last",
            "title": "Title",
            "agency": "Button B0 Agency",
            "extra": "Button B0 extra text",
            "layout": "layout1",
            "button": "b",
            "button_toggle": 0
        },
        "3": {
            "name": "First Last",
            "title": "Title",
            "agency": "Button B1 Agency",
            "extra": "Button B1 extra text",
            "layout": "layout1",
            "button": "b",
            "button_toggle": 1
        },
        "4": {
            "name": "First Last",
            "title": "Title",
            "agency": "Button C0 Agency",
            "extra": "Button C0 extra text",
            "layout": "layout1",
            "button": "c",
            "button_toggle": 0
        },
        "5": {
            "name": "First Last",
            "title": "Title",
            "agency": "Button C1 Agency",
            "extra": "Button C1 extra text",
            "layout": "layout1",
            "button": "c",
            "button_toggle": 1
        }
    },
	"layouts":
        [{
		    "name": "layout0"
        }, 
        {
		    "name": "layout1"
	    }]
    }
]
